import smth

0.054545

12445

def func(q, w , e,r ,t,y):
    if smth == another:
        return ['text', 'more', {'key': (val1, val2)}]
# short comment
######### wantt more #

"""
multiline comment
"""

'''
can parse this too
'''

:;"!@#$%^&*()_+-=